{
  "service": {
    "service": "printer3d",
    "serviceObject": {
      "name": "printer3d"
    },
    "provider": {
      "stage": "dev",
      "region": "us-east-1",
      "variableSyntax": "\\${([ ~:a-zA-Z0-9._'\",\\-\\/\\(\\)]+?)}",
      "name": "aws",
      "runtime": "python3.6",
      "environment": {
        "ENERGY_PER_HOUR": 0.05,
        "DEPRECIATION": 2.0238,
        "MATERIAL_COST": 130,
        "LABOR_COST": 40,
        "MARKUP": 0.6
      },
      "versionFunctions": true,
      "remoteFunctionData": null,
      "compiledCloudFormationTemplate": {
        "AWSTemplateFormatVersion": "2010-09-09",
        "Description": "The AWS CloudFormation template for this Serverless application",
        "Resources": {
          "ServerlessDeploymentBucket": {
            "Type": "AWS::S3::Bucket"
          },
          "MainLogGroup": {
            "Type": "AWS::Logs::LogGroup",
            "Properties": {
              "LogGroupName": "/aws/lambda/printer3d-dev-main"
            }
          },
          "IamRoleLambdaExecution": {
            "Type": "AWS::IAM::Role",
            "Properties": {
              "AssumeRolePolicyDocument": {
                "Version": "2012-10-17",
                "Statement": [
                  {
                    "Effect": "Allow",
                    "Principal": {
                      "Service": [
                        "lambda.amazonaws.com"
                      ]
                    },
                    "Action": [
                      "sts:AssumeRole"
                    ]
                  }
                ]
              },
              "Policies": [
                {
                  "PolicyName": {
                    "Fn::Join": [
                      "-",
                      [
                        "dev",
                        "printer3d",
                        "lambda"
                      ]
                    ]
                  },
                  "PolicyDocument": {
                    "Version": "2012-10-17",
                    "Statement": [
                      {
                        "Effect": "Allow",
                        "Action": [
                          "logs:CreateLogStream"
                        ],
                        "Resource": [
                          {
                            "Fn::Sub": "arn:${AWS::Partition}:logs:${AWS::Region}:${AWS::AccountId}:log-group:/aws/lambda/printer3d-dev-main:*"
                          }
                        ]
                      },
                      {
                        "Effect": "Allow",
                        "Action": [
                          "logs:PutLogEvents"
                        ],
                        "Resource": [
                          {
                            "Fn::Sub": "arn:${AWS::Partition}:logs:${AWS::Region}:${AWS::AccountId}:log-group:/aws/lambda/printer3d-dev-main:*:*"
                          }
                        ]
                      }
                    ]
                  }
                }
              ],
              "Path": "/",
              "RoleName": {
                "Fn::Join": [
                  "-",
                  [
                    "printer3d",
                    "dev",
                    "us-east-1",
                    "lambdaRole"
                  ]
                ]
              }
            }
          },
          "MainLambdaFunction": {
            "Type": "AWS::Lambda::Function",
            "Properties": {
              "Code": {
                "S3Bucket": {
                  "Ref": "ServerlessDeploymentBucket"
                },
                "S3Key": "serverless/printer3d/dev/1534905163881-2018-08-22T02:32:43.881Z/printer3d.zip"
              },
              "FunctionName": "printer3d-dev-main",
              "Handler": "handler.main",
              "MemorySize": 1024,
              "Role": {
                "Fn::GetAtt": [
                  "IamRoleLambdaExecution",
                  "Arn"
                ]
              },
              "Runtime": "python3.6",
              "Timeout": 6,
              "Environment": {
                "Variables": {
                  "ENERGY_PER_HOUR": 0.05,
                  "DEPRECIATION": 2.0238,
                  "MATERIAL_COST": 130,
                  "LABOR_COST": 40,
                  "MARKUP": 0.6
                }
              }
            },
            "DependsOn": [
              "MainLogGroup",
              "IamRoleLambdaExecution"
            ]
          },
          "MainLambdaVersionU8KmcyQCnYHrCrLk8SZQPbAyBA4aGwVF8E9ONNOKaE": {
            "Type": "AWS::Lambda::Version",
            "DeletionPolicy": "Retain",
            "Properties": {
              "FunctionName": {
                "Ref": "MainLambdaFunction"
              },
              "CodeSha256": "yGFNCQDJejimtF/E6p+teTW4+FzBvoZfKDD1Chjqwuk="
            }
          }
        },
        "Outputs": {
          "ServerlessDeploymentBucketName": {
            "Value": {
              "Ref": "ServerlessDeploymentBucket"
            }
          },
          "MainLambdaFunctionQualifiedArn": {
            "Description": "Current Lambda function version",
            "Value": {
              "Ref": "MainLambdaVersionU8KmcyQCnYHrCrLk8SZQPbAyBA4aGwVF8E9ONNOKaE"
            }
          }
        }
      },
      "coreCloudFormationTemplate": {
        "AWSTemplateFormatVersion": "2010-09-09",
        "Description": "The AWS CloudFormation template for this Serverless application",
        "Resources": {
          "ServerlessDeploymentBucket": {
            "Type": "AWS::S3::Bucket"
          }
        },
        "Outputs": {
          "ServerlessDeploymentBucketName": {
            "Value": {
              "Ref": "ServerlessDeploymentBucket"
            }
          }
        }
      },
      "vpc": {}
    },
    "custom": {
      "pythonRequirements": {
        "dockerizePip": "non-linux"
      }
    },
    "plugins": [
      "serverless-python-requirements"
    ],
    "pluginsData": {},
    "functions": {
      "main": {
        "handler": "handler.main",
        "events": [],
        "name": "printer3d-dev-main",
        "package": {},
        "memory": 1024,
        "timeout": 6,
        "runtime": "python3.6",
        "vpc": {}
      }
    },
    "app": "3dprinter",
    "tenant": "vorrac",
    "artifact": "/home/bruno/workspace/3dprinter/.serverless/printer3d.zip"
  },
  "package": {
    "artifactDirectoryName": "serverless/printer3d/dev/1534905163881-2018-08-22T02:32:43.881Z",
    "artifact": "printer3d.zip"
  }
}